// SPDX-FileCopyrightText: 2023 Siemens AG
// SPDX-License-Identifier: Apache-2.0

//module siemens.com/qos-scheduler/scheduler
module gitlab.eclipse.org/rcarrollred/qos-scheduler/scheduler

go 1.20

require (
	github.com/go-logr/logr v1.2.4
	github.com/hashicorp/go-retryablehttp v0.7.0
	github.com/onsi/ginkgo/v2 v2.9.2
	github.com/onsi/gomega v1.27.6
	github.com/vishvananda/netlink v1.2.1-beta.2
	golang.org/x/oauth2 v0.0.0-20211104180415-d3ed0bb246c8 // indirect
	google.golang.org/protobuf v1.28.0
	k8s.io/api v0.23.17
	k8s.io/apimachinery v0.23.17
	k8s.io/client-go v0.23.17
	k8s.io/klog/v2 v2.30.0
	k8s.io/kube-openapi v0.0.0-20211115234752-e816edb12b65 // indirect
	k8s.io/kubernetes v1.23.17
	sigs.k8s.io/controller-runtime v0.11.0
)

require k8s.io/component-base v0.23.17 // indirect

require github.com/golang/groupcache v0.0.0-20210331224755-41bb18bfe9da // indirect

require (
	github.com/apparentlymart/go-cidr v1.1.0
	github.com/containernetworking/cni v1.1.2
	github.com/containernetworking/plugins v1.3.0
	github.com/fvbommel/sortorder v1.0.1
	github.com/golang/mock v1.6.0
	github.com/prometheus/client_golang v1.11.0
	github.com/stretchr/testify v1.8.4
	google.golang.org/grpc v1.40.0
)

require (
	cloud.google.com/go v0.81.0 // indirect
	github.com/Azure/go-ansiterm v0.0.0-20210617225240-d185dfc1b5a1 // indirect
	github.com/Azure/go-autorest v14.2.0+incompatible // indirect
	github.com/Azure/go-autorest/autorest v0.11.18 // indirect
	github.com/Azure/go-autorest/autorest/adal v0.9.13 // indirect
	github.com/Azure/go-autorest/autorest/date v0.3.0 // indirect
	github.com/Azure/go-autorest/logger v0.2.1 // indirect
	github.com/Azure/go-autorest/tracing v0.6.0 // indirect
	github.com/NYTimes/gziphandler v1.1.1 // indirect
	github.com/PuerkitoBio/purell v1.1.1 // indirect
	github.com/PuerkitoBio/urlesc v0.0.0-20170810143723-de5bf2ad4578 // indirect
	github.com/beorn7/perks v1.0.1 // indirect
	github.com/blang/semver v3.5.1+incompatible // indirect
	github.com/cespare/xxhash/v2 v2.1.1 // indirect
	github.com/coreos/go-iptables v0.6.0 // indirect
	github.com/coreos/go-semver v0.3.0 // indirect
	github.com/coreos/go-systemd/v22 v22.5.0 // indirect
	github.com/cyphar/filepath-securejoin v0.2.2 // indirect
	github.com/davecgh/go-spew v1.1.1 // indirect
	github.com/docker/distribution v2.7.1+incompatible // indirect
	github.com/emicklei/go-restful v2.9.5+incompatible // indirect
	github.com/evanphx/json-patch v4.12.0+incompatible // indirect
	github.com/felixge/httpsnoop v1.0.1 // indirect
	github.com/form3tech-oss/jwt-go v3.2.3+incompatible // indirect
	github.com/fsnotify/fsnotify v1.5.1 // indirect
	github.com/go-logr/zapr v1.2.0 // indirect
	github.com/go-openapi/jsonpointer v0.19.5 // indirect
	github.com/go-openapi/jsonreference v0.19.5 // indirect
	github.com/go-openapi/swag v0.19.14 // indirect
	github.com/go-task/slim-sprig v0.0.0-20230315185526-52ccab3ef572 // indirect
	github.com/gogo/protobuf v1.3.2 // indirect
	github.com/golang/protobuf v1.5.3 // indirect
	github.com/google/go-cmp v0.5.9 // indirect
	github.com/google/gofuzz v1.1.0 // indirect
	github.com/google/pprof v0.0.0-20230323073829-e72429f035bd // indirect
	github.com/google/uuid v1.1.2 // indirect
	github.com/googleapis/gnostic v0.5.5 // indirect
	github.com/grpc-ecosystem/go-grpc-prometheus v1.2.0 // indirect
	github.com/grpc-ecosystem/grpc-gateway v1.16.0 // indirect
	github.com/hashicorp/go-cleanhttp v0.5.1 // indirect
	github.com/imdario/mergo v0.3.12 // indirect
	github.com/inconshreveable/mousetrap v1.0.0 // indirect
	github.com/josharian/intern v1.0.0 // indirect
	github.com/json-iterator/go v1.1.12 // indirect
	github.com/mailru/easyjson v0.7.6 // indirect
	github.com/matttproud/golang_protobuf_extensions v1.0.2-0.20181231171920-c182affec369 // indirect
	github.com/moby/term v0.0.0-20210610120745-9d4ed1856297 // indirect
	github.com/modern-go/concurrent v0.0.0-20180306012644-bacd9c7ef1dd // indirect
	github.com/modern-go/reflect2 v1.0.2 // indirect
	github.com/munnerz/goautoneg v0.0.0-20191010083416-a7dc8b61c822 // indirect
	github.com/opencontainers/go-digest v1.0.0 // indirect
	github.com/opencontainers/runc v1.0.2 // indirect
	github.com/opencontainers/selinux v1.11.0 // indirect
	github.com/pkg/errors v0.9.1 // indirect
	github.com/pmezard/go-difflib v1.0.0 // indirect
	github.com/prometheus/client_model v0.2.0 // indirect
	github.com/prometheus/common v0.28.0 // indirect
	github.com/prometheus/procfs v0.6.0 // indirect
	github.com/safchain/ethtool v0.3.0 // indirect
	github.com/spf13/cobra v1.2.1 // indirect
	github.com/spf13/pflag v1.0.5 // indirect
	github.com/vishvananda/netns v0.0.4 // indirect
	go.etcd.io/etcd/api/v3 v3.5.0 // indirect
	go.etcd.io/etcd/client/pkg/v3 v3.5.0 // indirect
	go.etcd.io/etcd/client/v3 v3.5.0 // indirect
	go.opentelemetry.io/contrib v0.20.0 // indirect
	go.opentelemetry.io/contrib/instrumentation/google.golang.org/grpc/otelgrpc v0.20.0 // indirect
	go.opentelemetry.io/contrib/instrumentation/net/http/otelhttp v0.20.0 // indirect
	go.opentelemetry.io/otel v0.20.0 // indirect
	go.opentelemetry.io/otel/exporters/otlp v0.20.0 // indirect
	go.opentelemetry.io/otel/metric v0.20.0 // indirect
	go.opentelemetry.io/otel/sdk v0.20.0 // indirect
	go.opentelemetry.io/otel/sdk/export/metric v0.20.0 // indirect
	go.opentelemetry.io/otel/sdk/metric v0.20.0 // indirect
	go.opentelemetry.io/otel/trace v0.20.0 // indirect
	go.opentelemetry.io/proto/otlp v0.7.0 // indirect
	go.uber.org/atomic v1.7.0 // indirect
	go.uber.org/multierr v1.6.0 // indirect
	go.uber.org/zap v1.19.1 // indirect
	golang.org/x/crypto v0.0.0-20220214200702-86341886e292 // indirect
	golang.org/x/net v0.10.0 // indirect
	golang.org/x/sync v0.2.0 // indirect
	golang.org/x/sys v0.8.0 // indirect
	golang.org/x/term v0.8.0 // indirect
	golang.org/x/text v0.9.0 // indirect
	golang.org/x/time v0.0.0-20220210224613-90d013bbcef8 // indirect
	golang.org/x/tools v0.7.0 // indirect
	gomodules.xyz/jsonpatch/v2 v2.2.0 // indirect
	google.golang.org/appengine v1.6.7 // indirect
	google.golang.org/genproto v0.0.0-20210831024726-fe130286e0e2 // indirect
	gopkg.in/inf.v0 v0.9.1 // indirect
	gopkg.in/natefinch/lumberjack.v2 v2.0.0 // indirect
	gopkg.in/yaml.v2 v2.4.0 // indirect
	gopkg.in/yaml.v3 v3.0.1 // indirect
	k8s.io/apiextensions-apiserver v0.23.0 // indirect
	k8s.io/apiserver v0.23.17 // indirect
	k8s.io/cloud-provider v0.23.17 // indirect
	k8s.io/component-helpers v0.23.17 // indirect
	k8s.io/csi-translation-lib v0.23.17 // indirect
	k8s.io/kube-scheduler v0.0.0 // indirect
	k8s.io/mount-utils v0.23.17 // indirect
	k8s.io/utils v0.0.0-20211116205334-6203023598ed // indirect
	sigs.k8s.io/apiserver-network-proxy/konnectivity-client v0.0.35 // indirect
	sigs.k8s.io/json v0.0.0-20211020170558-c049b76a60c6 // indirect
	sigs.k8s.io/structured-merge-diff/v4 v4.2.3 // indirect
	sigs.k8s.io/yaml v1.3.0 // indirect
)

replace k8s.io/api => k8s.io/api v0.23.17

replace k8s.io/apiextensions-apiserver => k8s.io/apiextensions-apiserver v0.23.17

replace k8s.io/apimachinery => k8s.io/apimachinery v0.23.18-rc.0

replace k8s.io/apiserver => k8s.io/apiserver v0.23.17

replace k8s.io/cli-runtime => k8s.io/cli-runtime v0.23.17

replace k8s.io/client-go => k8s.io/client-go v0.23.17

replace k8s.io/cloud-provider => k8s.io/cloud-provider v0.23.17

replace k8s.io/cluster-bootstrap => k8s.io/cluster-bootstrap v0.23.17

replace k8s.io/code-generator => k8s.io/code-generator v0.23.18-rc.0

replace k8s.io/component-base => k8s.io/component-base v0.23.17

replace k8s.io/component-helpers => k8s.io/component-helpers v0.23.17

replace k8s.io/controller-manager => k8s.io/controller-manager v0.23.17

replace k8s.io/cri-api => k8s.io/cri-api v0.23.18-rc.0

replace k8s.io/csi-translation-lib => k8s.io/csi-translation-lib v0.23.17

replace k8s.io/kube-aggregator => k8s.io/kube-aggregator v0.23.17

replace k8s.io/kube-controller-manager => k8s.io/kube-controller-manager v0.23.17

replace k8s.io/kube-proxy => k8s.io/kube-proxy v0.23.17

replace k8s.io/kube-scheduler => k8s.io/kube-scheduler v0.23.17

replace k8s.io/kubectl => k8s.io/kubectl v0.23.17

replace k8s.io/kubelet => k8s.io/kubelet v0.23.17

replace k8s.io/legacy-cloud-providers => k8s.io/legacy-cloud-providers v0.23.17

replace k8s.io/metrics => k8s.io/metrics v0.23.17

replace k8s.io/mount-utils => k8s.io/mount-utils v0.23.18-rc.0

replace k8s.io/sample-apiserver => k8s.io/sample-apiserver v0.23.17

replace k8s.io/sample-cli-plugin => k8s.io/sample-cli-plugin v0.23.17

replace k8s.io/sample-controller => k8s.io/sample-controller v0.23.17

replace k8s.io/pod-security-admission => k8s.io/pod-security-admission v0.23.17
