# SPDX-FileCopyrightText: Siemens AG
# SPDX-License-Identifier: Apache-2.0

#Node	CPU	RAM	Initial-CPU	Initial-RAM	Name
1	500	500	0	0	C1
2	2000	1000	0	0	C2
3	2000	1000	0	0	C3
4	2000	1000	0	0	C4
5	2000	1000	0	0	C5
6	2000	1000	0	0	C6
7	2000	1000	0	0	C7
8	2000	1000	0	0	C8
9	2000	1000	0	0	C9
10	2000	1000	0	0	C10
11	2000	1000	0	0	C11
12	4000	4000	0	0	C12
13	4000	8000	0	0	C13
14	4000	8000	0	0	C14
15	8000	16000	0	0	C15
16	8000	16000	0	0	C16
17	100	100	0	0	N3
18	100	100	0	0	N4
19	100	100	0	0	N5
20	100	100	0	0	N6
21	0	0	0	0	N1
22	0	0	0	0	N2
23	0	0	0	0	N7
24	0	0	0	0	N8
