# SPDX-FileCopyrightText: Siemens AG
# SPDX-License-Identifier: Apache-2.0

#Workload	App	CPU	RAM
1	A1	200	100
2	A1	200	100
3	A1	200	100
4	A1	200	100
5	A1	200	100
6	A1	200	100
7	A1	200	100
8	A1	200	100
9	A1	200	100
10	A1	200	100
11	A1	200	100
12	A1	200	100
13	A1	200	100
14	A1	200	100
15	A1	200	100
16	A1	500	300
17	A1	500	300
18	A1	500	300
19	A1	500	300
20	A1	500	300
21	A1	0	0
22	A1	100	200
23	A1	3000	4000
24	A1	1000	1000
25	A1	500	200
26	A1	500	200
27	A1	2000	1000
28	A1	400	400
29	A1	500	500
30	A1	2000	500
31	A1	100	100
32	A1	100	100
33	A1	100	100
34	A1	100	100
35	A1	500	500
36	A1	2000	2000
37	A1	2000	4000
38	A1	1000	1000
