@startuml NetworkCRDs 
/'
SPDX-FileCopyrightText: 2023 Siemens AG
SPDX-License-Identifier: CC-BY-SA-4.0
'/
entity NetworkEndpoint  {
    Name
    --
    K8sNodeName
    NetworkInterfaces: map[NetworkLabel]InterfaceName
}

entity KubernetesNode {
    Name
    --
    ComputeResources
}

entity NetworkLink {
    Name
    NetworkLabel
    --
    PhysicalBase
    Capacity
    Status 
}

entity NetworkPath {
    StartNode
    EndNode
    NetworkLabel
    --
    PhysicalBase
    Links
}

NetworkEndpoint  ||--|| KubernetesNode 
NetworkPath }o--|{ NetworkEndpoint  
NetworkPath }o--o{ NetworkLink

@enduml
